<svg width="20" height="16" viewBox="0 0 20 16" fill="none" xmlns="http://www.w3.org/2000/svg">
<path d="M19.7749 2.93207L17.6562 0.832044C17.3749 0.550777 16.9062 0.550777 16.6062 0.832044L7.54986 10.1883L3.63108 6.32583C3.34982 6.04456 2.88107 6.04456 2.5811 6.32583L0.706067 8.1821C0.424801 8.46337 0.424801 8.93211 0.706067 9.21338L6.96862 15.4196C7.13739 15.5884 7.36238 15.6446 7.58738 15.6259C7.81237 15.6446 8.03737 15.5883 8.20614 15.4196L19.7749 3.98206C20.0562 3.68203 20.0562 3.21329 19.7749 2.93207Z" fill="#F2F1EF"/>
</svg>
