<svg width="18" height="18" viewBox="0 0 18 18" fill="none" xmlns="http://www.w3.org/2000/svg">
<path d="M17.7188 4.03125L15.8906 5.85938L12.1406 2.10938L13.9688 0.28125C14.1562 0.09375 14.3906 0 14.6719 0C14.9531 0 15.1875 0.09375 15.375 0.28125L17.7188 2.625C17.9062 2.8125 18 3.04688 18 3.32812C18 3.60938 17.9062 3.84375 17.7188 4.03125ZM0 14.25L11.0625 3.1875L14.8125 6.9375L3.75 18H0V14.25Z" fill="#A99C9C"/>
</svg>
